Introduction to Math 158
…
## `filter()`

Allows you to select a subset of the **rows** of a data frame. The first
argument is the name of the data frame, the following arguments are the
filters that you'd like to apply

For all flights on January 1st:

```r
filter(flights, month == 1, day == 1)
```

```
## # A tibble: 842 × 19
##     year month   day dep_time sched_dep_time dep_delay arr_time
##    <int> <int> <int>    <int>          <int>     <dbl>    <int>
##  1  2013     1     1      517            515         2      830
##  2  2013     1     1      533            529         4      850
##  3  2013     1     1      542            540         2      923
##  4  2013     1     1      544            545        -1     1004
##  5  2013     1     1      554            600        -6      812
##  6  2013     1     1      554            558        -4      740
##  7  2013     1     1      555            600        -5      913
##  8  2013     1     1      557            600        -3      709
##  9  2013     1     1      557            600        -3      838
## 10  2013     1     1      558            600        -2      753
## # … with 832 more rows, and 12 more variables:
## #   sched_arr_time <int>, arr_delay <dbl>, carrier <chr>,
## #   flight <int>, tailnum <chr>, origin <chr>, dest <chr>,
## #   air_time <dbl>, distance <dbl>, hour <dbl>, minute <dbl>,
## #   time_hour <dttm>
```
…
## Constructing filters

Filters are constructed of **logical operators**: `<`, `>`, `<=`, `>=`, `==`,
`!=` (and some others).

Adding them one by one to `filter()` is akin to saying "this AND that". To say
"this OR that OR both", use |.

```r
filter(flights, month == 1 | month == 2)
```

```
## # A tibble: 51,955 × 19
##     year month   day dep_time sched_dep_time dep_delay arr_time
##    <int> <int> <int>    <int>          <int>     <dbl>    <int>
##  1  2013     1     1      517            515         2      830
##  2  2013     1     1      533            529         4      850
##  3  2013     1     1      542            540         2      923
##  4  2013     1     1      544            545        -1     1004
##  5  2013     1     1      554            600        -6      812
##  6  2013     1     1      554            558        -4      740
##  7  2013     1     1      555            600        -5      913
##  8  2013     1     1      557            600        -3      709
##  9  2013     1     1      557            600        -3      838
## 10  2013     1     1      558            600        -2      753
## # … with 51,945 more rows, and 12 more variables:
## #   sched_arr_time <int>, arr_delay <dbl>, carrier <chr>,
## #   flight <int>, tailnum <chr>, origin <chr>, dest <chr>,
## #   air_time <dbl>, distance <dbl>, hour <dbl>, minute <dbl>,
## #   time_hour <dttm>
```
…
---

## `distinct()`

A common use of `select()` is to find out which values a set of variables takes.  This is particularly useful in conjunction with the `distinct()` verb which only  returns the unique values in a table.

What do the following data correspond to?

```r
distinct(select(flights, origin, dest))
```

```
## # A tibble: 224 × 2
##    origin dest 
##    <chr>  <chr>
##  1 EWR    IAH  
##  2 LGA    IAH  
##  3 JFK    MIA  
##  4 JFK    BQN  
##  5 LGA    ATL  
##  6 EWR    ORD  
##  7 EWR    FLL  
##  8 LGA    IAD  
##  9 JFK    MCO  
## 10 LGA    ORD  
## # … with 214 more rows
```

---

## `mutate()`

As well as selecting from the set of existing columns, it's often useful to add 
new columns that are functions of existing columns. This is the job of `mutate()`:

```r
select(mutate(flights, gain = dep_delay - arr_delay), 
       flight, dep_delay, arr_delay, gain)
```

```
## # A tibble: 336,776 × 4
##    flight dep_delay arr_delay  gain
##     <int>     <dbl>     <dbl> <dbl>
##  1   1545         2        11    -9
##  2   1714         4        20   -16
##  3   1141         2        33   -31
##  4    725        -1       -18    17
##  5    461        -6       -25    19
##  6   1696        -4        12   -16
##  7    507        -5        19   -24
##  8   5708        -3       -14    11
##  9     79        -3        -8     5
## 10    301        -2         8   -10
## # … with 336,766 more rows
```
…
## `group_by()`

Find the fastest airplanes in the bunch, measured as the average speed per airplane.

```r
by_tailnum <- group_by(speed_data, tailnum)
avg_speed <- summarize(by_tailnum, 
                       count = n(), 
                       avg_speed = mean(speed, na.rm = TRUE))
arrange(avg_speed, desc(avg_speed))
```

```
## # A tibble: 4,044 × 3
##    tailnum count avg_speed
##    <chr>   <int>     <dbl>
##  1 N228UA      1      501.
##  2 N315AS      1      499.
##  3 N654UA      1      499.
##  4 N819AW      1      490.
##  5 N382HA     26      486.
##  6 N388HA     36      484.
##  7 N391HA     21      484.
##  8 N777UA      1      483.
##  9 N385HA     28      483.
## 10 N392HA     13      482.
## # … with 4,034 more rows
```
…
`x %>% f(y)` is the same as `f(x, y)`

` y %>% f(x, ., z)` is the same as `f(x,y,z)`
---

```r
flights2 %>%
  select(tailnum, speed) %>%
  group_by(tailnum) %>% 
  summarize(number = n(), avg_speed = mean(speed, na.rm = TRUE)) %>%
  arrange(desc(avg_speed))
```

```
## # A tibble: 4,044 × 3
##    tailnum number avg_speed
##    <chr>    <int>     <dbl>
##  1 N228UA       1      501.
##  2 N315AS       1      499.
##  3 N654UA       1      499.
##  4 N819AW       1      490.
##  5 N382HA      26      486.
##  6 N388HA      36      484.
##  7 N391HA      21      484.
##  8 N777UA       1      483.
##  9 N385HA      28      483.
## 10 N392HA      13      482.
## # … with 4,034 more rows
```
…
